…
# modified data
mbar_prep_data(mba_sample, InvoiceNo, Description)
#> # A tibble: 66 x 85
#>    item_1 item_2 item_3 item_4 item_5 item_6 item_7 item_8 item_9 item_10
#>    <chr>  <chr>  <chr>  <chr>  <chr>  <chr>  <chr>  <chr>  <chr>  <chr>  
#>  1 WHITE~ WHITE~ CREAM~ KNITT~ RED W~ SET 7~ GLASS~ ""     ""     ""     
#>  2 HAND ~ HAND ~ ""     ""     ""     ""     ""     ""     ""     ""     
#>  3 ASSOR~ POPPY~ POPPY~ FELTC~ IVORY~ BOX O~ BOX O~ BOX O~ HOME ~ LOVE B~
#>  4 JAM M~ RED C~ YELLO~ BLUE ~ ""     ""     ""     ""     ""     ""     
#>  5 BATH ~ ""     ""     ""     ""     ""     ""     ""     ""     ""     
#>  6 ALARM~ ALARM~ ALARM~ PANDA~ STARS~ INFLA~ VINTA~ SET/2~ ROUND~ SPACEB~
#>  7 PAPER~ ""     ""     ""     ""     ""     ""     ""     ""     ""     
#>  8 HAND ~ HAND ~ ""     ""     ""     ""     ""     ""     ""     ""     
#>  9 WHITE~ WHITE~ CREAM~ EDWAR~ RETRO~ SAVE ~ VINTA~ VINTA~ WOOD ~ WOOD S~
#> 10 VICTO~ ""     ""     ""     ""     ""     ""     ""     ""     ""     
#> # ... with 56 more rows, and 75 more variables: item_11 <chr>,
#> #   item_12 <chr>, item_13 <chr>, item_14 <chr>, item_15 <chr>,
#> #   item_16 <chr>, item_17 <chr>, item_18 <chr>, item_19 <chr>,
#> #   item_20 <chr>, item_21 <chr>, item_22 <chr>, item_23 <chr>,
#> #   item_24 <chr>, item_25 <chr>, item_26 <chr>, item_27 <chr>,
#> #   item_28 <chr>, item_29 <chr>, item_30 <chr>, item_31 <chr>,
#> #   item_32 <chr>, item_33 <chr>, item_34 <chr>, item_35 <chr>,
#> #   item_36 <chr>, item_37 <chr>, item_38 <chr>, item_39 <chr>,
#> #   item_40 <chr>, item_41 <chr>, item_42 <chr>, item_43 <chr>,
…
